# gmm-align-compiled --transition-scale=1.0 --acoustic-scale=0.1 --self-loop-scale=0.1 --beam=10 --retry-beam=40 --careful=false "gmm-boost-silence --boost=1.75 1 exp/mono/14.mdl - |" "ark:gunzip -c exp/mono/fsts.1.gz|" "ark,s,cs:apply-cmvn  --utt2spk=ark:data/train/split2/1/utt2spk scp:data/train/split2/1/cmvn.scp scp:data/train/split2/1/feats.scp ark:- | add-deltas  ark:- ark:- |" "ark,t:|gzip -c >exp/mono/ali.1.gz" 
# Started at Thu Sep  1 17:35:29 IST 2022
#
gmm-align-compiled --transition-scale=1.0 --acoustic-scale=0.1 --self-loop-scale=0.1 --beam=10 --retry-beam=40 --careful=false 'gmm-boost-silence --boost=1.75 1 exp/mono/14.mdl - |' 'ark:gunzip -c exp/mono/fsts.1.gz|' 'ark,s,cs:apply-cmvn  --utt2spk=ark:data/train/split2/1/utt2spk scp:data/train/split2/1/cmvn.scp scp:data/train/split2/1/feats.scp ark:- | add-deltas  ark:- ark:- |' 'ark,t:|gzip -c >exp/mono/ali.1.gz' 
gmm-boost-silence --boost=1.75 1 exp/mono/14.mdl - 
WARNING (gmm-boost-silence[5.5]:main():gmm-boost-silence.cc:82) The pdfs for the silence phones may be shared by other phones (note: this probably does not matter.)
LOG (gmm-boost-silence[5.5]:main():gmm-boost-silence.cc:93) Boosted weights for 3 pdfs, by factor of 1.75
LOG (gmm-boost-silence[5.5]:main():gmm-boost-silence.cc:103) Wrote model to -
add-deltas ark:- ark:- 
apply-cmvn --utt2spk=ark:data/train/split2/1/utt2spk scp:data/train/split2/1/cmvn.scp scp:data/train/split2/1/feats.scp ark:- 
LOG (gmm-align-compiled[5.5]:main():gmm-align-compiled.cc:127) TA_test_100_0001
LOG (gmm-align-compiled[5.5]:main():gmm-align-compiled.cc:127) TA_test_100_0002
LOG (gmm-align-compiled[5.5]:main():gmm-align-compiled.cc:127) TA_test_100_0003
LOG (gmm-align-compiled[5.5]:main():gmm-align-compiled.cc:127) TA_test_100_0004
LOG (gmm-align-compiled[5.5]:main():gmm-align-compiled.cc:127) TA_test_100_0005
LOG (gmm-align-compiled[5.5]:main():gmm-align-compiled.cc:127) TA_test_100_0006
LOG (gmm-align-compiled[5.5]:main():gmm-align-compiled.cc:127) TA_test_100_0007
LOG (gmm-align-compiled[5.5]:main():gmm-align-compiled.cc:127) TA_test_100_0008
LOG (gmm-align-compiled[5.5]:main():gmm-align-compiled.cc:127) TA_test_100_0009
LOG (gmm-align-compiled[5.5]:main():gmm-align-compiled.cc:127) TA_test_100_0010
LOG (gmm-align-compiled[5.5]:main():gmm-align-compiled.cc:127) TA_test_100_0011
LOG (gmm-align-compiled[5.5]:main():gmm-align-compiled.cc:127) TA_test_100_0012
LOG (gmm-align-compiled[5.5]:main():gmm-align-compiled.cc:127) TA_test_100_0013
LOG (gmm-align-compiled[5.5]:main():gmm-align-compiled.cc:127) TA_test_100_0014
LOG (gmm-align-compiled[5.5]:main():gmm-align-compiled.cc:127) TA_test_100_0015
LOG (gmm-align-compiled[5.5]:main():gmm-align-compiled.cc:127) TA_test_100_0016
LOG (gmm-align-compiled[5.5]:main():gmm-align-compiled.cc:127) TA_test_100_0017
LOG (gmm-align-compiled[5.5]:main():gmm-align-compiled.cc:127) TA_test_100_0018
LOG (gmm-align-compiled[5.5]:main():gmm-align-compiled.cc:127) TA_test_100_0019
LOG (gmm-align-compiled[5.5]:main():gmm-align-compiled.cc:127) TA_test_100_0020
LOG (gmm-align-compiled[5.5]:main():gmm-align-compiled.cc:127) TA_test_100_0021
LOG (gmm-align-compiled[5.5]:main():gmm-align-compiled.cc:127) TA_test_100_0022
LOG (gmm-align-compiled[5.5]:main():gmm-align-compiled.cc:127) TA_test_100_0023
LOG (gmm-align-compiled[5.5]:main():gmm-align-compiled.cc:127) TA_test_100_0024
LOG (gmm-align-compiled[5.5]:main():gmm-align-compiled.cc:127) TA_test_100_0025
LOG (gmm-align-compiled[5.5]:main():gmm-align-compiled.cc:127) TA_test_100_0026
LOG (gmm-align-compiled[5.5]:main():gmm-align-compiled.cc:127) TA_test_100_0027
LOG (gmm-align-compiled[5.5]:main():gmm-align-compiled.cc:127) TA_test_100_0028
LOG (gmm-align-compiled[5.5]:main():gmm-align-compiled.cc:127) TA_test_100_0029
LOG (gmm-align-compiled[5.5]:main():gmm-align-compiled.cc:127) TA_test_100_0030
LOG (gmm-align-compiled[5.5]:main():gmm-align-compiled.cc:127) TA_test_100_0031
LOG (gmm-align-compiled[5.5]:main():gmm-align-compiled.cc:127) TA_test_100_0032
LOG (gmm-align-compiled[5.5]:main():gmm-align-compiled.cc:127) TA_test_100_0033
LOG (gmm-align-compiled[5.5]:main():gmm-align-compiled.cc:127) TA_test_100_0034
LOG (gmm-align-compiled[5.5]:main():gmm-align-compiled.cc:127) TA_test_100_0035
LOG (gmm-align-compiled[5.5]:main():gmm-align-compiled.cc:127) TA_test_100_0036
LOG (gmm-align-compiled[5.5]:main():gmm-align-compiled.cc:127) TA_test_100_0037
LOG (gmm-align-compiled[5.5]:main():gmm-align-compiled.cc:127) TA_test_100_0038
LOG (gmm-align-compiled[5.5]:main():gmm-align-compiled.cc:127) TA_test_100_0039
LOG (gmm-align-compiled[5.5]:main():gmm-align-compiled.cc:127) TA_test_100_0040
LOG (gmm-align-compiled[5.5]:main():gmm-align-compiled.cc:127) TA_test_100_0041
LOG (gmm-align-compiled[5.5]:main():gmm-align-compiled.cc:127) TA_test_100_0042
LOG (gmm-align-compiled[5.5]:main():gmm-align-compiled.cc:127) TA_test_100_0043
LOG (gmm-align-compiled[5.5]:main():gmm-align-compiled.cc:127) TA_test_100_0044
LOG (gmm-align-compiled[5.5]:main():gmm-align-compiled.cc:127) TA_test_100_0045
LOG (gmm-align-compiled[5.5]:main():gmm-align-compiled.cc:127) TA_test_100_0046
LOG (gmm-align-compiled[5.5]:main():gmm-align-compiled.cc:127) TA_test_100_0047
LOG (gmm-align-compiled[5.5]:main():gmm-align-compiled.cc:127) TA_test_100_0048
LOG (gmm-align-compiled[5.5]:main():gmm-align-compiled.cc:127) TA_test_100_0049
LOG (gmm-align-compiled[5.5]:main():gmm-align-compiled.cc:127) TA_test_100_0050
LOG (gmm-align-compiled[5.5]:main():gmm-align-compiled.cc:127) TA_test_100_0051
LOG (gmm-align-compiled[5.5]:main():gmm-align-compiled.cc:127) TA_test_100_0052
LOG (gmm-align-compiled[5.5]:main():gmm-align-compiled.cc:127) TA_test_100_0053
LOG (gmm-align-compiled[5.5]:main():gmm-align-compiled.cc:127) TA_test_100_0054
LOG (gmm-align-compiled[5.5]:main():gmm-align-compiled.cc:127) TA_test_100_0055
LOG (gmm-align-compiled[5.5]:main():gmm-align-compiled.cc:127) TA_test_100_0056
LOG (gmm-align-compiled[5.5]:main():gmm-align-compiled.cc:127) TA_test_100_0057
LOG (gmm-align-compiled[5.5]:main():gmm-align-compiled.cc:127) TA_test_100_0058
LOG (gmm-align-compiled[5.5]:main():gmm-align-compiled.cc:127) TA_test_100_0059
LOG (gmm-align-compiled[5.5]:main():gmm-align-compiled.cc:127) TA_test_100_0060
LOG (gmm-align-compiled[5.5]:main():gmm-align-compiled.cc:127) TA_test_100_0061
LOG (gmm-align-compiled[5.5]:main():gmm-align-compiled.cc:127) TA_test_100_0062
LOG (gmm-align-compiled[5.5]:main():gmm-align-compiled.cc:127) TA_test_100_0063
LOG (gmm-align-compiled[5.5]:main():gmm-align-compiled.cc:127) TA_test_100_0064
LOG (gmm-align-compiled[5.5]:main():gmm-align-compiled.cc:127) TA_test_100_0065
LOG (gmm-align-compiled[5.5]:main():gmm-align-compiled.cc:127) TA_test_100_0066
LOG (gmm-align-compiled[5.5]:main():gmm-align-compiled.cc:127) TA_test_100_0067
LOG (gmm-align-compiled[5.5]:main():gmm-align-compiled.cc:127) TA_test_100_0068
LOG (gmm-align-compiled[5.5]:main():gmm-align-compiled.cc:127) TA_test_100_0069
LOG (gmm-align-compiled[5.5]:main():gmm-align-compiled.cc:127) TA_test_100_0070
LOG (gmm-align-compiled[5.5]:main():gmm-align-compiled.cc:127) TA_test_100_0071
LOG (gmm-align-compiled[5.5]:main():gmm-align-compiled.cc:127) TA_test_100_0072
LOG (gmm-align-compiled[5.5]:main():gmm-align-compiled.cc:127) TA_test_100_0073
LOG (gmm-align-compiled[5.5]:main():gmm-align-compiled.cc:127) TA_test_100_0074
LOG (gmm-align-compiled[5.5]:main():gmm-align-compiled.cc:127) TA_test_100_0075
LOG (gmm-align-compiled[5.5]:main():gmm-align-compiled.cc:127) TA_test_100_0076
LOG (gmm-align-compiled[5.5]:main():gmm-align-compiled.cc:127) TA_test_100_0077
LOG (gmm-align-compiled[5.5]:main():gmm-align-compiled.cc:127) TA_test_100_0078
LOG (gmm-align-compiled[5.5]:main():gmm-align-compiled.cc:127) TA_test_100_0079
LOG (gmm-align-compiled[5.5]:main():gmm-align-compiled.cc:127) TA_test_100_0080
LOG (gmm-align-compiled[5.5]:main():gmm-align-compiled.cc:127) TA_test_100_0081
LOG (gmm-align-compiled[5.5]:main():gmm-align-compiled.cc:127) TA_test_100_0082
LOG (gmm-align-compiled[5.5]:main():gmm-align-compiled.cc:127) TA_test_100_0083
LOG (gmm-align-compiled[5.5]:main():gmm-align-compiled.cc:127) TA_test_100_0084
LOG (gmm-align-compiled[5.5]:main():gmm-align-compiled.cc:127) TA_test_100_0085
LOG (gmm-align-compiled[5.5]:main():gmm-align-compiled.cc:127) TA_test_100_0086
LOG (gmm-align-compiled[5.5]:main():gmm-align-compiled.cc:127) TA_test_100_0087
LOG (gmm-align-compiled[5.5]:main():gmm-align-compiled.cc:127) TA_test_100_0088
LOG (gmm-align-compiled[5.5]:main():gmm-align-compiled.cc:127) TA_test_100_0089
LOG (gmm-align-compiled[5.5]:main():gmm-align-compiled.cc:127) TA_test_100_0090
LOG (gmm-align-compiled[5.5]:main():gmm-align-compiled.cc:127) TA_test_100_0091
LOG (gmm-align-compiled[5.5]:main():gmm-align-compiled.cc:127) TA_test_100_0092
LOG (gmm-align-compiled[5.5]:main():gmm-align-compiled.cc:127) TA_test_100_0093
LOG (gmm-align-compiled[5.5]:main():gmm-align-compiled.cc:127) TA_test_100_0094
LOG (gmm-align-compiled[5.5]:main():gmm-align-compiled.cc:127) TA_test_100_0095
LOG (gmm-align-compiled[5.5]:main():gmm-align-compiled.cc:127) TA_test_100_0096
LOG (gmm-align-compiled[5.5]:main():gmm-align-compiled.cc:127) TA_test_100_0097
LOG (gmm-align-compiled[5.5]:main():gmm-align-compiled.cc:127) TA_test_100_0098
LOG (gmm-align-compiled[5.5]:main():gmm-align-compiled.cc:127) TA_test_100_0099
LOG (gmm-align-compiled[5.5]:main():gmm-align-compiled.cc:127) TA_test_100_0100
LOG (gmm-align-compiled[5.5]:main():gmm-align-compiled.cc:127) TA_test_100_0101
LOG (gmm-align-compiled[5.5]:main():gmm-align-compiled.cc:127) TA_test_100_0102
LOG (gmm-align-compiled[5.5]:main():gmm-align-compiled.cc:127) TA_test_100_0103
LOG (gmm-align-compiled[5.5]:main():gmm-align-compiled.cc:127) TA_test_100_0104
LOG (gmm-align-compiled[5.5]:main():gmm-align-compiled.cc:127) TA_test_100_0105
LOG (gmm-align-compiled[5.5]:main():gmm-align-compiled.cc:127) TA_test_100_0106
LOG (gmm-align-compiled[5.5]:main():gmm-align-compiled.cc:127) TA_test_100_0107
LOG (gmm-align-compiled[5.5]:main():gmm-align-compiled.cc:127) TA_test_100_0108
LOG (gmm-align-compiled[5.5]:main():gmm-align-compiled.cc:127) TA_test_100_0109
LOG (gmm-align-compiled[5.5]:main():gmm-align-compiled.cc:127) TA_test_100_0110
LOG (gmm-align-compiled[5.5]:main():gmm-align-compiled.cc:127) TA_test_100_0111
LOG (gmm-align-compiled[5.5]:main():gmm-align-compiled.cc:127) TA_test_100_0112
LOG (gmm-align-compiled[5.5]:main():gmm-align-compiled.cc:127) TA_test_100_0113
LOG (gmm-align-compiled[5.5]:main():gmm-align-compiled.cc:127) TA_test_100_0114
LOG (gmm-align-compiled[5.5]:main():gmm-align-compiled.cc:127) TA_test_100_0115
LOG (gmm-align-compiled[5.5]:main():gmm-align-compiled.cc:127) TA_test_100_0116
LOG (gmm-align-compiled[5.5]:main():gmm-align-compiled.cc:127) TA_test_100_0117
LOG (gmm-align-compiled[5.5]:main():gmm-align-compiled.cc:127) TA_test_100_0118
LOG (gmm-align-compiled[5.5]:main():gmm-align-compiled.cc:127) TA_test_100_0119
LOG (gmm-align-compiled[5.5]:main():gmm-align-compiled.cc:127) TA_test_100_0120
LOG (gmm-align-compiled[5.5]:main():gmm-align-compiled.cc:127) TA_test_100_0121
LOG (gmm-align-compiled[5.5]:main():gmm-align-compiled.cc:127) TA_test_100_0122
LOG (gmm-align-compiled[5.5]:main():gmm-align-compiled.cc:127) TA_test_100_0123
LOG (gmm-align-compiled[5.5]:main():gmm-align-compiled.cc:127) TA_test_100_0124
LOG (gmm-align-compiled[5.5]:main():gmm-align-compiled.cc:127) TA_test_100_0125
LOG (gmm-align-compiled[5.5]:main():gmm-align-compiled.cc:127) TA_test_100_0126
LOG (gmm-align-compiled[5.5]:main():gmm-align-compiled.cc:127) TA_test_100_0127
LOG (gmm-align-compiled[5.5]:main():gmm-align-compiled.cc:127) TA_test_100_0128
LOG (gmm-align-compiled[5.5]:main():gmm-align-compiled.cc:127) TA_test_100_0129
LOG (gmm-align-compiled[5.5]:main():gmm-align-compiled.cc:127) TA_test_100_0130
LOG (gmm-align-compiled[5.5]:main():gmm-align-compiled.cc:127) TA_test_100_0131
LOG (gmm-align-compiled[5.5]:main():gmm-align-compiled.cc:127) TA_test_100_0132
LOG (gmm-align-compiled[5.5]:main():gmm-align-compiled.cc:127) TA_test_100_0133
LOG (gmm-align-compiled[5.5]:main():gmm-align-compiled.cc:127) TA_test_100_0134
LOG (gmm-align-compiled[5.5]:main():gmm-align-compiled.cc:127) TA_test_100_0135
LOG (gmm-align-compiled[5.5]:main():gmm-align-compiled.cc:127) TA_test_100_0136
LOG (gmm-align-compiled[5.5]:main():gmm-align-compiled.cc:127) TA_test_100_0137
LOG (gmm-align-compiled[5.5]:main():gmm-align-compiled.cc:127) TA_test_100_0138
LOG (gmm-align-compiled[5.5]:main():gmm-align-compiled.cc:127) TA_test_100_0139
LOG (gmm-align-compiled[5.5]:main():gmm-align-compiled.cc:127) TA_test_100_0140
LOG (gmm-align-compiled[5.5]:main():gmm-align-compiled.cc:127) TA_test_100_0141
LOG (gmm-align-compiled[5.5]:main():gmm-align-compiled.cc:127) TA_test_100_0142
LOG (gmm-align-compiled[5.5]:main():gmm-align-compiled.cc:127) TA_test_100_0143
LOG (gmm-align-compiled[5.5]:main():gmm-align-compiled.cc:127) TA_test_100_0144
LOG (gmm-align-compiled[5.5]:main():gmm-align-compiled.cc:127) TA_test_100_0145
LOG (gmm-align-compiled[5.5]:main():gmm-align-compiled.cc:127) TA_test_100_0146
LOG (gmm-align-compiled[5.5]:main():gmm-align-compiled.cc:127) TA_test_100_0147
LOG (gmm-align-compiled[5.5]:main():gmm-align-compiled.cc:127) TA_test_100_0148
LOG (gmm-align-compiled[5.5]:main():gmm-align-compiled.cc:127) TA_test_100_0149
LOG (gmm-align-compiled[5.5]:main():gmm-align-compiled.cc:127) TA_test_100_0150
LOG (gmm-align-compiled[5.5]:main():gmm-align-compiled.cc:127) TA_test_100_0151
LOG (gmm-align-compiled[5.5]:main():gmm-align-compiled.cc:127) TA_test_100_0152
LOG (gmm-align-compiled[5.5]:main():gmm-align-compiled.cc:127) TA_test_100_0153
LOG (gmm-align-compiled[5.5]:main():gmm-align-compiled.cc:127) TA_test_100_0154
LOG (gmm-align-compiled[5.5]:main():gmm-align-compiled.cc:127) TA_test_100_0155
LOG (gmm-align-compiled[5.5]:main():gmm-align-compiled.cc:127) TA_test_100_0156
LOG (gmm-align-compiled[5.5]:main():gmm-align-compiled.cc:127) TA_test_100_0157
LOG (gmm-align-compiled[5.5]:main():gmm-align-compiled.cc:127) TA_test_100_0158
LOG (gmm-align-compiled[5.5]:main():gmm-align-compiled.cc:127) TA_test_100_0159
LOG (gmm-align-compiled[5.5]:main():gmm-align-compiled.cc:127) TA_test_100_0160
LOG (gmm-align-compiled[5.5]:main():gmm-align-compiled.cc:127) TA_test_100_0161
LOG (gmm-align-compiled[5.5]:main():gmm-align-compiled.cc:127) TA_test_100_0162
LOG (gmm-align-compiled[5.5]:main():gmm-align-compiled.cc:127) TA_test_100_0163
LOG (gmm-align-compiled[5.5]:main():gmm-align-compiled.cc:127) TA_test_100_0164
LOG (gmm-align-compiled[5.5]:main():gmm-align-compiled.cc:127) TA_test_100_0165
LOG (gmm-align-compiled[5.5]:main():gmm-align-compiled.cc:127) TA_test_100_0166
LOG (gmm-align-compiled[5.5]:main():gmm-align-compiled.cc:127) TA_test_100_0167
LOG (gmm-align-compiled[5.5]:main():gmm-align-compiled.cc:127) TA_test_100_0168
LOG (apply-cmvn[5.5]:main():apply-cmvn.cc:162) Applied cepstral mean normalization to 170 utterances, errors on 0
LOG (gmm-align-compiled[5.5]:main():gmm-align-compiled.cc:127) TA_test_100_0169
LOG (gmm-align-compiled[5.5]:main():gmm-align-compiled.cc:127) TA_test_100_0170
LOG (gmm-align-compiled[5.5]:main():gmm-align-compiled.cc:135) Overall log-likelihood per frame is -145.623 over 95222 frames.
LOG (gmm-align-compiled[5.5]:main():gmm-align-compiled.cc:137) Retried 0 out of 170 utterances.
LOG (gmm-align-compiled[5.5]:main():gmm-align-compiled.cc:139) Done 170, errors on 0
# Accounting: time=2 threads=1
# Ended (code 0) at Thu Sep  1 17:35:31 IST 2022, elapsed time 2 seconds
