0	ज़ीरो
1	वन
2	टू
3	थ्री
4	फोर
5	फाइव
6	सिक्स
7	सेवेन
8	ऐइट
9	नाइन
०	ज़ीरो
१	वन
२	टू
३	थ्री
४	फोर
५	फाइव
६	सिक्स
७	सेवेन
८	ऐइट
९	नाइन
A	ए
a	ए
B	बी
b	बी
C	सी
c	सी
D	डी
d	डी
E	इ
e	इ
F	एफ
f	एफ
G	जी
g	जी
H	एच
h	एच
I	आई
i	आई
J	जे
j	जे
K	के
k	के
L	एल
l	एल
M	एम
m	एम
N	एन
n	एन
O	ओ
o	ओ
P	पी
p	पी
Q	क्यू
q	क्यू
R	आर
r	आर
S	एस
s	एस
T	टी
t	टी
U	यू
u	यू
V	वी
v	वी
W	डबलु
w	डबलु
X	एक्स
x	एक्स
Y	व्हाई
y	व्हाई
Z	ज़ेड
z	ज़ेड
α	अल्फा
φ	फ़ाई
+	प्लस
=	इक्वल
λ	लैम्ब्डा
∅	नॉट
ϕ	फ़ाई
𝝅	पाई
⇒	इम्प्लइज
