/tts1/tts1/mano/Debugging/Again/LipSync_W1L1/Hybrid_Segmentation_template/../mfc/test_100_0161.mfc
/tts1/tts1/mano/Debugging/Again/LipSync_W1L1/Hybrid_Segmentation_template/../mfc/test_100_0162.mfc
/tts1/tts1/mano/Debugging/Again/LipSync_W1L1/Hybrid_Segmentation_template/../mfc/test_100_0163.mfc
/tts1/tts1/mano/Debugging/Again/LipSync_W1L1/Hybrid_Segmentation_template/../mfc/test_100_0164.mfc
/tts1/tts1/mano/Debugging/Again/LipSync_W1L1/Hybrid_Segmentation_template/../mfc/test_100_0165.mfc
/tts1/tts1/mano/Debugging/Again/LipSync_W1L1/Hybrid_Segmentation_template/../mfc/test_100_0166.mfc
/tts1/tts1/mano/Debugging/Again/LipSync_W1L1/Hybrid_Segmentation_template/../mfc/test_100_0167.mfc
/tts1/tts1/mano/Debugging/Again/LipSync_W1L1/Hybrid_Segmentation_template/../mfc/test_100_0168.mfc
/tts1/tts1/mano/Debugging/Again/LipSync_W1L1/Hybrid_Segmentation_template/../mfc/test_100_0169.mfc
/tts1/tts1/mano/Debugging/Again/LipSync_W1L1/Hybrid_Segmentation_template/../mfc/test_100_0170.mfc
/tts1/tts1/mano/Debugging/Again/LipSync_W1L1/Hybrid_Segmentation_template/../mfc/test_100_0171.mfc
/tts1/tts1/mano/Debugging/Again/LipSync_W1L1/Hybrid_Segmentation_template/../mfc/test_100_0172.mfc
/tts1/tts1/mano/Debugging/Again/LipSync_W1L1/Hybrid_Segmentation_template/../mfc/test_100_0173.mfc
/tts1/tts1/mano/Debugging/Again/LipSync_W1L1/Hybrid_Segmentation_template/../mfc/test_100_0174.mfc
/tts1/tts1/mano/Debugging/Again/LipSync_W1L1/Hybrid_Segmentation_template/../mfc/test_100_0175.mfc
/tts1/tts1/mano/Debugging/Again/LipSync_W1L1/Hybrid_Segmentation_template/../mfc/test_100_0176.mfc
