/tts1/tts1/mano/Debugging/Again/LipSync_W1L1/Hybrid_Segmentation_template/../mfc/test_100_0225.mfc
/tts1/tts1/mano/Debugging/Again/LipSync_W1L1/Hybrid_Segmentation_template/../mfc/test_100_0226.mfc
/tts1/tts1/mano/Debugging/Again/LipSync_W1L1/Hybrid_Segmentation_template/../mfc/test_100_0227.mfc
/tts1/tts1/mano/Debugging/Again/LipSync_W1L1/Hybrid_Segmentation_template/../mfc/test_100_0228.mfc
/tts1/tts1/mano/Debugging/Again/LipSync_W1L1/Hybrid_Segmentation_template/../mfc/test_100_0229.mfc
/tts1/tts1/mano/Debugging/Again/LipSync_W1L1/Hybrid_Segmentation_template/../mfc/test_100_0230.mfc
/tts1/tts1/mano/Debugging/Again/LipSync_W1L1/Hybrid_Segmentation_template/../mfc/test_100_0231.mfc
/tts1/tts1/mano/Debugging/Again/LipSync_W1L1/Hybrid_Segmentation_template/../mfc/test_100_0232.mfc
/tts1/tts1/mano/Debugging/Again/LipSync_W1L1/Hybrid_Segmentation_template/../mfc/test_100_0233.mfc
/tts1/tts1/mano/Debugging/Again/LipSync_W1L1/Hybrid_Segmentation_template/../mfc/test_100_0234.mfc
/tts1/tts1/mano/Debugging/Again/LipSync_W1L1/Hybrid_Segmentation_template/../mfc/test_100_0235.mfc
/tts1/tts1/mano/Debugging/Again/LipSync_W1L1/Hybrid_Segmentation_template/../mfc/test_100_0236.mfc
/tts1/tts1/mano/Debugging/Again/LipSync_W1L1/Hybrid_Segmentation_template/../mfc/test_100_0237.mfc
/tts1/tts1/mano/Debugging/Again/LipSync_W1L1/Hybrid_Segmentation_template/../mfc/test_100_0238.mfc
/tts1/tts1/mano/Debugging/Again/LipSync_W1L1/Hybrid_Segmentation_template/../mfc/test_100_0239.mfc
/tts1/tts1/mano/Debugging/Again/LipSync_W1L1/Hybrid_Segmentation_template/../mfc/test_100_0240.mfc
