/tts1/tts1/mano/Debugging/Again/LipSync_W1L1/Hybrid_Segmentation_template/../mfc/test_100_0273.mfc
/tts1/tts1/mano/Debugging/Again/LipSync_W1L1/Hybrid_Segmentation_template/../mfc/test_100_0274.mfc
/tts1/tts1/mano/Debugging/Again/LipSync_W1L1/Hybrid_Segmentation_template/../mfc/test_100_0275.mfc
/tts1/tts1/mano/Debugging/Again/LipSync_W1L1/Hybrid_Segmentation_template/../mfc/test_100_0276.mfc
/tts1/tts1/mano/Debugging/Again/LipSync_W1L1/Hybrid_Segmentation_template/../mfc/test_100_0277.mfc
/tts1/tts1/mano/Debugging/Again/LipSync_W1L1/Hybrid_Segmentation_template/../mfc/test_100_0278.mfc
/tts1/tts1/mano/Debugging/Again/LipSync_W1L1/Hybrid_Segmentation_template/../mfc/test_100_0279.mfc
/tts1/tts1/mano/Debugging/Again/LipSync_W1L1/Hybrid_Segmentation_template/../mfc/test_100_0280.mfc
/tts1/tts1/mano/Debugging/Again/LipSync_W1L1/Hybrid_Segmentation_template/../mfc/test_100_0281.mfc
/tts1/tts1/mano/Debugging/Again/LipSync_W1L1/Hybrid_Segmentation_template/../mfc/test_100_0282.mfc
/tts1/tts1/mano/Debugging/Again/LipSync_W1L1/Hybrid_Segmentation_template/../mfc/test_100_0283.mfc
/tts1/tts1/mano/Debugging/Again/LipSync_W1L1/Hybrid_Segmentation_template/../mfc/test_100_0284.mfc
/tts1/tts1/mano/Debugging/Again/LipSync_W1L1/Hybrid_Segmentation_template/../mfc/test_100_0285.mfc
/tts1/tts1/mano/Debugging/Again/LipSync_W1L1/Hybrid_Segmentation_template/../mfc/test_100_0286.mfc
/tts1/tts1/mano/Debugging/Again/LipSync_W1L1/Hybrid_Segmentation_template/../mfc/test_100_0287.mfc
/tts1/tts1/mano/Debugging/Again/LipSync_W1L1/Hybrid_Segmentation_template/../mfc/test_100_0288.mfc
