
3.101108e-01
2.841292e-01
2.463416e-01
1.981171e-01
1.411895e-01
7.759476e-02
9.587264e-03
-6.043788e-02
-1.300342e-01
-1.967791e-01
-2.583570e-01
-3.126241e-01
-3.576724e-01
-3.918807e-01
-4.139612e-01
-4.229958e-01
-4.184609e-01
-4.002575e-01
-3.687157e-01
-3.246061e-01
-2.691300e-01
-2.039044e-01
-1.309249e-01
-5.252721e-02
2.869298e-02
1.099485e-01
1.883622e-01
2.610821e-01
3.253928e-01
3.788368e-01
4.193338e-01
4.452842e-01
4.556492e-01
4.500166e-01
4.286266e-01
3.923685e-01
3.427389e-01
2.817731e-01
2.119362e-01
1.360082e-01
5.693581e-02
-2.230955e-02
-9.887326e-02
-1.701443e-01
-2.338668e-01
-2.882116e-01
-3.318366e-01
-3.638970e-01
-3.840315e-01
-3.923341e-01
-3.892715e-01
-3.756372e-01
-3.524451e-01
-3.208684e-01
-2.821675e-01
-2.376102e-01
-1.884697e-01
-1.359571e-01
-8.124442e-02
-2.545338e-02
3.032578e-02
8.502144e-02
1.375462e-01
1.868207e-01
2.317289e-01
2.711755e-01
3.040688e-01
3.293872e-01
3.462204e-01
3.538216e-01
3.516518e-01
3.394704e-01
3.173301e-01
2.856483e-01
2.452008e-01
1.971192e-01
1.428747e-01
8.421980e-02
2.313637e-02
-3.825106e-02
-9.776008e-02
-1.532405e-01
-2.026788e-01
-2.442824e-01
-2.765674e-01
-2.984230e-01
-3.091721e-01
-3.085970e-01
-2.969724e-01
-2.750358e-01
-2.439770e-01
-2.053904e-01
-1.612078e-01
-1.136007e-01
-6.491275e-02
-1.753116e-02
2.621988e-02
6.418747e-02
9.450138e-02
1.156839e-01
1.267134e-01
1.271090e-01
1.169592e-01
9.693020e-02
6.824788e-02
3.264503e-02
-7.728759e-03
-5.042132e-02
-9.280257e-02
-1.322332e-01
-1.662040e-01
-1.925032e-01
-2.093487e-01
-2.155092e-01
-2.103839e-01
-1.940585e-01
-1.672946e-01
-1.314966e-01
-8.862649e-02
-4.108223e-02
8.452584e-03
5.717789e-02
1.023517e-01
1.414579e-01
1.723653e-01
1.934340e-01
2.036264e-01
2.025171e-01
1.903189e-01
1.678157e-01
1.362883e-01
9.739166e-02
5.302299e-02
5.172792e-03
-4.421210e-02
-9.335138e-02
-1.407330e-01
-1.851799e-01
-2.258722e-01
-2.623437e-01
-2.944398e-01
-3.222368e-01
-3.459674e-01
-3.659039e-01
-3.822791e-01
-3.951955e-01
-4.045639e-01
-4.100854e-01
-4.112359e-01
-4.073206e-01
-3.975283e-01
-3.810117e-01
-3.569994e-01
-3.248909e-01
-2.843485e-01
-2.353645e-01
-1.783248e-01
-1.139940e-01
-4.350624e-02
3.169548e-02
1.099594e-01
1.895227e-01
2.686490e-01
3.457309e-01
4.194176e-01
4.886823e-01
5.528725e-01
6.117299e-01
6.653510e-01
7.141190e-01
7.586072e-01
7.994416e-01
8.371916e-01
8.722213e-01
9.045768e-01
9.339317e-01
9.595096e-01
9.801345e-01
9.942340e-01
1.000000e+00
9.954882e-01
9.787916e-01
9.482507e-01
9.025914e-01
8.411220e-01
7.638386e-01
6.715043e-01
5.657052e-01
4.487688e-01
3.237111e-01
1.940755e-01
6.374823e-02
