
9.924226e-01
9.924226e-01
9.950085e-01
9.941179e-01
9.934129e-01
9.921354e-01
9.937604e-01
9.964786e-01
9.959485e-01
9.932892e-01
9.963645e-01
9.978595e-01
9.974753e-01
9.973634e-01
9.974356e-01
9.971042e-01
9.955935e-01
9.980419e-01
9.973994e-01
9.956499e-01
9.973154e-01
9.970374e-01
9.971932e-01
9.931489e-01
9.959965e-01
9.941526e-01
9.966165e-01
9.963335e-01
9.923354e-01
9.935021e-01
9.955723e-01
9.931855e-01
9.967842e-01
9.972979e-01
9.953016e-01
9.947152e-01
9.946387e-01
9.962519e-01
9.973530e-01
9.952552e-01
9.966559e-01
9.974487e-01
9.979855e-01
9.965981e-01
9.952181e-01
9.955897e-01
9.965323e-01
9.959969e-01
9.967407e-01
9.948074e-01
9.949702e-01
9.959953e-01
9.967177e-01
9.972273e-01
9.976817e-01
9.949800e-01
9.953902e-01
9.954033e-01
9.974450e-01
9.975013e-01
9.961060e-01
9.957476e-01
9.982449e-01
9.990132e-01
9.994745e-01
9.984403e-01
9.990581e-01
9.954207e-01
9.954622e-01
9.943499e-01
9.941668e-01
9.934022e-01
9.934959e-01
9.942733e-01
9.940187e-01
9.948323e-01
9.908851e-01
9.934096e-01
9.923075e-01
9.937024e-01
9.922433e-01
9.904245e-01
9.922481e-01
9.921708e-01
9.926637e-01
9.927927e-01
9.921584e-01
9.959114e-01
9.987458e-01
1.000000e+00
9.984630e-01
9.936865e-01
9.903291e-01
9.953406e-01
9.958037e-01
9.961966e-01
9.953170e-01
9.945506e-01
9.959719e-01
9.988922e-01
9.977111e-01
9.937826e-01
9.961491e-01
9.960164e-01
9.953263e-01
9.989994e-01
9.937845e-01
9.977697e-01
9.934102e-01
9.967760e-01
9.970804e-01
9.975083e-01
9.976741e-01
9.972415e-01
9.980838e-01
9.958879e-01
9.965204e-01
9.967443e-01
9.972869e-01
9.907263e-01
9.964946e-01
9.972571e-01
9.935467e-01
9.935088e-01
9.978586e-01
9.967085e-01
9.979708e-01
9.976938e-01
9.964107e-01
9.966825e-01
9.972972e-01
9.971045e-01
9.986179e-01
9.980716e-01
9.968979e-01
9.947955e-01
9.972006e-01
9.967445e-01
9.977322e-01
9.977267e-01
9.965507e-01
9.973870e-01
9.968367e-01
9.950152e-01
9.965141e-01
9.967645e-01
9.985771e-01
9.982701e-01
9.954228e-01
9.987143e-01
9.983605e-01
9.981229e-01
9.982482e-01
9.962592e-01
9.987888e-01
9.992057e-01
9.978637e-01
9.974185e-01
9.962651e-01
9.942681e-01
9.966968e-01
9.948981e-01
9.938718e-01
9.932273e-01
9.929269e-01
9.987389e-01
9.988195e-01
9.979790e-01
9.971103e-01
9.965584e-01
9.968458e-01
9.972013e-01
9.954749e-01
9.964618e-01
9.984621e-01
9.972510e-01
9.977982e-01
9.955155e-01
9.938034e-01
9.929578e-01
9.911453e-01
9.934928e-01
9.918965e-01
9.917969e-01
9.930862e-01
9.924409e-01
9.942229e-01
9.914802e-01
9.924178e-01
9.937786e-01
9.943314e-01
9.971965e-01
9.964508e-01
9.951560e-01
9.955934e-01
9.969607e-01
9.952495e-01
9.971972e-01
9.938697e-01
9.932495e-01
9.937131e-01
9.972605e-01
9.976214e-01
9.946530e-01
9.968870e-01
9.920627e-01
9.967679e-01
9.977120e-01
9.958811e-01
9.971416e-01
9.959476e-01
9.945203e-01
9.966217e-01
9.962451e-01
9.961122e-01
9.961692e-01
9.961027e-01
9.980764e-01
9.954395e-01
9.990140e-01
9.926264e-01
9.945168e-01
9.987832e-01
9.920733e-01
9.963411e-01
9.947309e-01
9.934518e-01
9.957688e-01
9.954197e-01
9.944069e-01
9.998966e-01
9.987184e-01
9.965792e-01
9.991990e-01
9.990046e-01
9.984789e-01
9.974518e-01
9.954185e-01
9.963762e-01
9.948617e-01
9.956119e-01
9.955252e-01
9.952565e-01
9.982907e-01
9.962376e-01
9.983780e-01
9.979550e-01
9.980568e-01
9.989623e-01
9.956255e-01
9.945152e-01
9.983955e-01
9.954771e-01
9.987214e-01
9.933059e-01
9.941612e-01
9.951633e-01
9.953495e-01
9.919818e-01
9.981803e-01
9.955145e-01
9.986819e-01
9.924049e-01
9.966967e-01
9.963912e-01
9.921621e-01
9.979544e-01
9.954867e-01
9.950824e-01
9.949887e-01
9.951629e-01
9.984185e-01
9.962742e-01
9.982731e-01
9.943939e-01
9.939365e-01
9.933199e-01
9.929321e-01
9.910735e-01
9.949638e-01
9.926992e-01
9.985901e-01
9.987831e-01
9.979715e-01
9.963920e-01
9.952607e-01
9.971460e-01
9.943991e-01
9.957668e-01
9.969088e-01
9.967058e-01
9.952033e-01
9.945399e-01
9.936002e-01
9.973306e-01
9.976929e-01
9.948255e-01
9.975355e-01
9.962279e-01
9.989586e-01
9.984192e-01
9.943700e-01
9.949868e-01
9.964422e-01
9.948048e-01
9.945182e-01
9.947504e-01
9.949899e-01
9.968804e-01
9.959233e-01
9.933145e-01
9.939889e-01
9.938275e-01
9.960503e-01
9.972048e-01
9.950874e-01
9.940273e-01
9.944999e-01
9.965757e-01
9.953735e-01
9.966773e-01
9.945173e-01
9.949248e-01
9.963259e-01
9.933828e-01
9.950262e-01
9.958327e-01
9.969434e-01
9.949443e-01
9.957921e-01
9.938872e-01
9.938468e-01
9.976600e-01
9.965837e-01
9.957255e-01
9.932369e-01
9.940964e-01
9.978077e-01
9.977834e-01
9.947932e-01
9.970086e-01
9.952606e-01
9.951109e-01
9.984449e-01
9.983788e-01
9.972214e-01
9.966422e-01
9.951557e-01
9.926180e-01
9.956848e-01
9.976316e-01
9.976035e-01
9.971456e-01
9.962643e-01
9.956381e-01
9.956041e-01
9.942415e-01
9.956747e-01
9.960087e-01
9.965093e-01
9.965460e-01
9.941650e-01
9.934050e-01
9.915798e-01
9.930351e-01
9.929573e-01
9.919803e-01
9.934450e-01
9.929122e-01
9.923809e-01
9.912570e-01
9.928287e-01
9.933879e-01
9.920362e-01
9.936439e-01
9.917777e-01
9.933973e-01
9.927450e-01
9.926171e-01
9.929969e-01
9.932691e-01
9.936941e-01
9.936247e-01
9.920500e-01
9.921988e-01
9.912779e-01
9.932213e-01
9.924838e-01
9.921743e-01
9.928553e-01
9.935764e-01
9.925231e-01
9.943940e-01
9.935548e-01
9.938706e-01
9.937363e-01
9.936630e-01
9.930587e-01
9.922779e-01
9.937668e-01
9.918342e-01
9.932203e-01
9.923331e-01
9.927162e-01
9.927023e-01
9.917355e-01
9.922665e-01
9.931799e-01
9.936757e-01
9.938046e-01
9.934086e-01
9.931947e-01
9.929919e-01
9.937876e-01
9.934627e-01
9.946032e-01
9.957206e-01
9.976128e-01
