
4.973226e-04
4.973226e-04
6.711301e-03
2.740821e-03
1.348373e-03
3.723443e-04
1.912870e-03
2.937283e-02
1.725356e-02
1.190402e-03
2.619652e-02
1.173271e-01
7.982858e-02
7.136012e-02
7.671352e-02
5.502277e-02
1.208035e-02
1.408470e-01
7.397538e-02
1.278303e-02
6.800368e-02
5.145718e-02
6.015665e-02
1.033580e-03
1.810562e-02
2.838225e-03
3.373675e-02
2.539500e-02
4.555071e-04
1.475058e-03
1.182502e-02
1.072427e-03
3.991685e-02
6.682408e-02
9.009385e-03
4.997558e-03
4.627705e-03
2.339777e-02
7.061186e-02
8.599434e-03
3.509311e-02
7.773025e-02
1.331202e-01
3.311770e-02
8.284654e-03
1.203381e-02
3.100221e-02
1.811233e-02
3.821144e-02
5.482650e-03
6.457767e-03
1.808338e-02
3.733917e-02
6.225195e-02
9.817244e-02
6.521281e-03
9.848206e-03
9.978505e-03
7.743632e-02
8.193632e-02
2.020898e-02
1.410186e-02
1.726317e-01
3.725783e-01
5.911428e-01
2.099535e-01
3.897142e-01
1.015466e-02
1.058722e-02
3.461243e-03
2.879146e-03
1.333969e-03
1.465876e-03
3.204706e-03
2.480691e-03
5.621959e-03
1.055168e-04
1.343914e-03
4.428853e-04
1.804353e-03
4.151205e-04
6.628167e-05
4.171471e-04
3.858636e-04
6.340532e-04
7.220659e-04
3.810589e-04
1.662192e-02
2.850744e-01
1.000000e+00
2.147757e-01
1.775796e-03
6.019279e-05
9.369539e-03
1.491776e-02
2.213446e-02
9.150084e-03
4.235308e-03
1.766271e-02
3.300869e-01
1.011125e-01
1.956141e-03
2.110209e-02
1.847045e-02
9.235907e-03
3.674868e-01
1.959908e-03
1.072233e-01
1.344595e-03
3.958797e-02
5.372382e-02
8.251823e-02
9.743229e-02
6.314399e-02
1.468930e-01
1.623589e-02
3.063349e-02
3.834883e-02
6.608468e-02
8.988541e-05
2.985009e-02
6.413963e-02
1.542628e-03
1.484984e-03
1.172286e-01
3.699580e-02
1.311745e-01
9.937837e-02
2.744135e-02
3.604505e-02
6.677009e-02
5.503939e-02
2.508062e-01
1.451093e-01
4.474102e-02
5.417510e-03
6.061020e-02
3.835772e-02
1.032694e-01
1.027005e-01
3.157846e-02
7.306431e-02
4.207472e-02
6.756458e-03
3.044214e-02
3.913464e-02
2.407542e-01
1.770328e-01
1.017593e-02
2.762116e-01
1.938140e-01
1.527705e-01
1.731991e-01
2.356980e-02
2.976174e-01
4.517514e-01
1.178237e-01
7.540583e-02
2.370805e-02
3.188034e-03
3.656472e-02
6.006212e-03
2.139734e-03
1.118529e-03
8.265832e-04
2.831185e-01
3.069261e-01
1.322529e-01
5.536184e-02
3.182369e-02
4.246226e-02
6.064774e-02
1.072286e-02
2.888331e-02
2.145906e-01
6.375221e-02
1.103377e-01
1.116949e-02
1.997589e-03
8.527124e-04
1.371821e-04
1.461258e-03
2.926530e-04
2.646836e-04
9.703716e-04
5.065893e-04
3.046123e-03
1.923208e-04
4.948936e-04
1.948176e-03
3.397338e-03
6.036092e-02
2.856789e-02
7.783192e-03
1.207831e-02
4.764711e-02
8.550339e-03
6.040102e-02
2.135356e-03
1.143822e-03
1.823990e-03
6.435613e-02
9.241822e-02
4.694841e-03
4.425147e-02
3.460570e-04
3.926836e-02
1.012011e-01
1.612392e-02
5.712480e-02
1.723825e-02
4.108332e-03
3.391077e-02
2.323782e-02
2.033510e-02
2.153333e-02
2.014301e-02
1.458038e-01
1.034805e-02
3.728647e-01
6.107099e-04
4.093686e-03
2.959514e-01
3.497604e-04
2.558922e-02
5.077020e-03
1.402170e-03
1.440533e-02
1.014458e-02
3.665535e-03
9.018178e-01
2.773527e-01
3.249420e-02
4.487319e-01
3.693964e-01
2.182302e-01
7.796682e-02
1.013199e-02
2.650492e-02
5.790559e-03
1.230503e-02
1.127915e-02
8.610965e-03
1.807292e-01
2.306320e-02
1.972359e-01
1.291013e-01
1.429783e-01
3.540878e-01
1.247415e-02
4.087275e-03
2.007299e-01
1.074729e-02
2.781911e-01
1.210586e-03
2.863111e-03
7.840881e-03
9.453539e-03
3.189428e-04
1.617983e-01
1.115839e-02
2.674107e-01
4.885618e-04
3.655987e-02
2.690779e-02
3.824950e-04
1.290360e-01
1.085100e-02
7.228884e-03
6.578640e-03
7.837648e-03
2.054071e-01
2.392608e-02
1.775743e-01
3.617994e-03
2.283719e-03
1.227879e-03
8.309254e-04
1.276024e-04
6.416102e-03
6.571608e-04
2.439249e-01
2.959301e-01
1.312643e-01
2.692794e-02
8.646528e-03
5.737889e-02
3.636895e-03
1.437645e-02
4.522977e-02
3.689472e-02
8.162059e-03
4.190038e-03
1.628050e-03
6.904825e-02
9.928360e-02
5.583906e-03
8.479142e-02
2.284109e-02
3.527806e-01
2.055617e-01
3.531982e-03
6.566399e-03
2.832036e-02
5.468442e-03
4.099748e-03
5.177385e-03
6.586699e-03
4.395846e-02
1.682267e-02
1.221181e-03
2.407363e-03
2.046388e-03
1.910995e-02
6.086130e-02
7.265107e-03
2.502258e-03
4.024800e-03
3.237965e-02
9.684554e-03
3.585851e-02
4.095704e-03
6.169442e-03
2.520051e-02
1.308039e-03
6.831106e-03
1.535942e-02
4.682606e-02
6.291565e-03
1.474590e-02
2.173198e-03
2.086633e-03
9.606628e-02
3.264188e-02
1.379182e-02
1.129389e-03
2.682283e-03
1.113915e-01
1.087105e-01
5.405210e-03
4.999357e-02
8.645963e-03
7.438095e-03
2.109086e-01
1.974026e-01
6.188368e-02
3.461632e-02
7.780911e-03
6.055206e-04
1.323985e-02
9.336857e-02
9.077247e-02
5.735611e-02
2.369137e-02
1.263351e-02
1.220918e-02
3.103850e-03
1.310643e-02
1.832913e-02
3.029241e-02
3.143210e-02
2.873942e-03
1.337701e-03
2.126636e-04
9.216879e-04
8.522317e-04
3.184616e-04
1.392676e-03
8.144445e-04
4.768424e-04
1.535452e-04
7.487044e-04
1.314763e-03
3.369224e-04
1.701223e-03
2.596322e-04
1.327313e-03
6.881836e-04
6.049757e-04
8.869889e-04
1.166684e-03
1.789467e-03
1.668651e-03
3.416288e-04
3.969023e-04
1.568302e-04
1.111868e-03
5.289626e-04
3.872313e-04
7.690201e-04
1.589509e-03
5.503366e-04
3.618290e-03
1.555401e-03
2.137131e-03
1.867143e-03
1.734337e-03
9.438819e-04
4.298638e-04
1.925228e-03
2.748303e-04
1.110724e-03
4.544422e-04
6.685226e-04
6.592104e-04
2.487909e-04
4.249573e-04
1.066336e-03
1.756604e-03
1.999934e-03
1.342522e-03
1.082418e-03
8.824751e-04
1.966063e-03
1.417663e-03
4.465428e-03
1.372490e-02
9.162120e-02
