aadhaar 1.0	aa dh aa r
aaeegaa 1.0	aa ee g aa
aaeeqgee 1.0	aa ee q g ee
aagee 1.0	aa g ee
aaiee 1.0	aa i ee
aaii 1.0	aa ii
aaitxam 1.0	aa i tx a m
aaitxams 1.0	aa i tx a m s
aaj 1.0	aa j
aam 1.0	aa m
aamtour 1.0	aa m t ou r
aao 1.0	aa o
aap 1.0	aa p
aapkaa 1.0	aa p k aa
aapkee 1.0	aa p k ee
aapko 1.0	aa p k o
aardxar 1.0	aa r dx a r
aargumeeqtx 1.0	aa r g u m ee q tx
aargyuumeeqtxs 1.0	aa r g y uu m ee q tx s
aasaan 1.0	aa s aa n
aasapaas 1.0	aa s a p aa s
aataa 1.0	aa t aa
aatee 1.0	aa t ee
aatii 1.0	aa t ii
aatxh 1.0	aa txh
aautx 1.0	aa u tx
aautxputx 1.0	aa u tx p u tx
aawashyak 1.0	aa w a sh y a k
aawashyaktaa 1.0	aa w a sh y a k t aa
ab 1.0	a b
abhii 1.0	a bh ii
acchaa 1.0	a c ch aa
acchii 1.0	a c ch ii
adhikaaqsh 1.0	a dh i k aa q sh
adhik 1.0	a dh i k
agar 1.0	a g a r
aglaa 1.0	a g l aa
aglii 1.0	a g l ii
ajiib 1.0	a j ii b
alaawaa 1.0	a l aa w aa
alag 1.0	a l a g
algoritham 1.0	a l g o r i th a m
algorithmik 1.0	a l g o r i th m i k
algorithms 1.0	a l g o r i th m s
aniwaarya 1.0	a n i w aa r y a
anoupcaarik 1.0	a n ou p c aa r i k
anubhwa 1.0	a n u bh w a
anya 1.0	a n y a
apar 1.0	a p a r
apdxeetx 1.0	a p dx ee tx
apeeksxit 1.0	a p ee k sx i t
apeenxdx 1.0	a p ee nx dx
apnaa 1.0	a p n aa
apnee 1.0	a p n ee
aqt 1.0	a q t
aqtar 1.0	a q t a r
aqtim 1.0	a q t i m
arithmeetxiklii 1.0	a r i th m ee tx i k l ii
arth 1.0	a r th
asaain 1.0	a s aa i n
aseeqdxiqg 1.0	a s ee q dx i q g
asiim 1.0	a s ii m
atxhaarah 1.0	a txh aa r a h
awalokan 1.0	a w a l o k a n
axf 1.0	ax f
axpreeshan 1.0	ax p r ee sh a n
axptximaaijeeshan 1.0	ax p tx i m aa i j ee sh a n
axptximam 1.0	ax p tx i m a m
axrdxars 1.0	ax r dx a r s
baad 1.0	b aa d
baaii 1.0	b aa ii
baaiiq 1.0	b aa ii q
baarah 1.0	b aa r a h
baar 1.0	b aa r
baaree 1.0	b aa r ee
baarii 1.0	b aa r ii
baat 1.0	b aa t
baatoq 1.0	b aa t o q
bacaa 1.0	b a c aa
badalnaa 1.0	b a d a l n aa
baddh 1.0	b a d dh
badxhqaa 1.0	b a dxhq aa
badxqaa 1.0	b a dxq aa
badxqee 1.0	b a dxq ee
badxqii 1.0	b a dxq ii
bahut 1.0	b a h u t
bajaaya 1.0	b a j aa y a
balki 1.0	b a l k i
banaatee 1.0	b a n aa t ee
banaatii 1.0	b a n aa t ii
baraabar 1.0	b a r aa b a r
bashartee 1.0	b a sh a r t ee
bataataa 1.0	b a t aa t aa
beehtar 1.0	b ee h t a r
beeshak 1.0	b ee sh a k
beesik 1.0	b ee s i k
bhaasxaaoq 1.0	bh aa sx aa o q
bhalee 1.0	bh a l ee
bhii 1.0	bh ii
bholaa 1.0	bh o l aa
bii 1.0	b ii
biic 1.0	b ii c
bilkul 1.0	b i l k u l
biltxain 1.0	b i l tx a i n
binaa 1.0	b i n aa
biqdu 1.0	b i q d u
bitx 1.0	b i tx
breikeetx 1.0	b r ei k ee tx
breikeetxs 1.0	b r ei k ee tx s
buk 1.0	b u k
bukiqg 1.0	b u k i q g
caah 1.0	c aa h
caahiee 1.0	c aa h i ee
caahtaa 1.0	c aa h t aa
caahtee 1.0	c aa h t ee
caar 1.0	c aa r
calaanee 1.0	c a l aa n ee
caliee 1.0	c a l i ee
calnee 1.0	c a l n ee
caltee 1.0	c a l t ee
catur 1.0	c a t u r
ceis 1.0	c ei s
chah 1.0	ch a h
chodxq 1.0	ch o dxq
chotxaa 1.0	ch o tx aa
chotxee 1.0	ch o tx ee
ciijeeq 1.0	c ii j ee q
ciijoq 1.0	c ii j o q
citrit 1.0	c i t r i t
coudah 1.0	c ou d a h
cuneeq 1.0	c u n ee q
cuuqki 1.0	c uu q k i
daaiiq 1.0	d aa ii q
daayree 1.0	d aa y r ee
darshaanee 1.0	d a r sh aa n ee
darshaatee 1.0	d a r sh aa t ee
das 1.0	d a s
deekhaa 1.0	d ee kh aa
deekh 1.0	d ee kh
deekhee 1.0	d ee kh ee
deekheeq 1.0	d ee kh ee q
deekheeqgee 1.0	d ee kh ee q g ee
deekhnaa 1.0	d ee kh n aa
deekhtaa 1.0	d ee kh t aa
deekhtee 1.0	d ee kh t ee
deenaa 1.0	d ee n aa
deenee 1.0	d ee n ee
deeq 1.0	d ee q
deeqgee 1.0	d ee q g ee
deetaa 1.0	d ee t aa
deetee 1.0	d ee t ee
deetii 1.0	d ee t ii
dhaarnxaa 1.0	dh aa r nx aa
dhyaan 1.0	dh y aa n
diee 1.0	d i ee
dikhaaii 1.0	d i kh aa ii
din 1.0	d i n
diwaaidxs 1.0	d i w aa i dx s
do 1.0	d o
dohraaee 1.0	d o h r aa ee
donoq 1.0	d o n o q
drqshyoq 1.0	d rq sh y o q
duusraa 1.0	d uu s r aa
duusree 1.0	d uu s r ee
duusrii 1.0	d uu s r ii
dwaaraa 1.0	d w aa r aa
dxaal 1.0	dx aa l
dxaaleeq 1.0	dx aa l ee q
dxaatxaa 1.0	dx aa tx aa
dxaxkyuumeeqtx 1.0	dx ax k y uu m ee q tx
dxeeph 1.0	dx ee ph
dxeephinishan 1.0	dx ee ph i n i sh a n
dxeeskeendxiqg 1.0	dx ee s k ee n dx i q g
dxeetxaa 1.0	dx ee tx aa
dxhaqg 1.0	dxh a q g
dxhuuqdxhatee 1.0	dxh uu q dxh a t ee
dxifaain 1.0	dx i f aa i n
dxii 1.0	dx ii
dxiphaain 1.0	dx i ph aa i n
dxish 1.0	dx i sh
dxiwaaidx 1.0	dx i w aa i dx
dxiwaaidxeedx 1.0	dx i w aa i dx ee dx
dxiwaaizar 1.0	dx i w aa i z a r
dxiwaaizars 1.0	dx i w aa i z a r s
dxiwiizan 1.0	dx i w ii z a n
ee 1.0	ee
eek 1.0	ee k
eeks 1.0	ee k s
eekseekyuutx 1.0	ee k s ee k y uu tx
eelgoridam 1.0	ee l g o r i d a m
eelgoridmik 1.0	ee l g o r i d m i k
eelimeeqtx 1.0	ee l i m ee q tx
eem 1.0	ee m
eemptxii 1.0	ee m p tx ii
een 1.0	ee n
eeph 1.0	ee ph
eeqdx 1.0	ee q dx
eesaeemaees 1.0	ee s a ee m a ee s
eewrii 1.0	ee w r ii
eidx 1.0	ei dx
eisaa 1.0	ei s aa
eisee 1.0	ei s ee
eisii 1.0	ei s ii
gaaraqtxii 1.0	g aa r a q tx ii
gaee 1.0	g a ee
gaii 1.0	g a ii
ganxit 1.0	g a nx i t
gatxhan 1.0	g a txh a n
gayaa 1.0	g a y aa
geems 1.0	g ee m s
gintee 1.0	g i n t ee
greetxeestx 1.0	g r ee tx ee s tx
gucchaa 1.0	g u c ch aa
gujartee 1.0	g u j a r t ee
gujree 1.0	g u j r ee
gunaa 1.0	g u n aa
gunxaa 1.0	g u nx aa
guzree 1.0	g u z r ee
haaii 1.0	h aa ii
haalaaqki 1.0	h aa l aa q k i
haaq 1.0	h aa q
haasil 1.0	h aa s i l
haath 1.0	h aa th
hal 1.0	h a l
hamaaraa 1.0	h a m aa r aa
hamaaree 1.0	h a m aa r ee
hamaarii 1.0	h a m aa r ii
hameeq 1.0	h a m ee q
hameeshaa 1.0	h a m ee sh aa
ham 1.0	h a m
hamnee 1.0	h a m n ee
har 1.0	h a r
haxl 1.0	h ax l
hei 1.0	h ei
heiq 1.0	h ei q
hii 1.0	h ii
hissaa 1.0	h i s s aa
hogaa 1.0	h o g aa
hogii 1.0	h o g ii
ho 1.0	h o
honaa 1.0	h o n aa
honee 1.0	h o n ee
hoqgee 1.0	h o q g ee
hoq 1.0	h o q
hotaa 1.0	h o t aa
hotee 1.0	h o t ee
hotii 1.0	h o t ii
huee 1.0	h u ee
huuq 1.0	h uu q
ikkiis 1.0	i k k ii s
ikwaalitxii 1.0	i k w aa l i tx ii
inheeq 1.0	i n h ee q
in 1.0	i n
inmee 1.0	i n m ee
inmeeq 1.0	i n m ee q
inphaarmeeshan 1.0	i n ph aa r m ee sh a n
insee 1.0	i n s ee
iqdxeeqtxeedx 1.0	i q dx ee q tx ee dx
iqglish 1.0	i q g l i sh
iqgreedxieeqtxs 1.0	i q g r ee dx i ee q tx s
iqstxrakshaqs 1.0	i q s tx r a k sh a q s
iqteejras 1.0	i q t ee j r a s
iqtxramiidxieetx 1.0	i q tx r a m ii dx i ee tx
isakaa 1.0	i s a k aa
isakee 1.0	i s a k ee
isaliee 1.0	i s a l i ee
isameeq 1.0	i s a m ee q
isee 1.0	i s ee
isii 1.0	i s ii
is 1.0	i s
isteemaal 1.0	i s t ee m aa l
itnaa 1.0	i t n aa
itnee 1.0	i t n ee
jaaeegaa 1.0	j aa ee g aa
jaaeegii 1.0	j aa ee g ii
jaaee 1.0	j aa ee
jaahir 1.0	j aa h i r
jaa 1.0	j aa
jaakee 1.0	j aa k ee
jaamqc 1.0	j aa mq c
jaanaa 1.0	j aa n aa
jaankaarii 1.0	j aa n k aa r ii
jaannaa 1.0	j aa n n aa
jaannee 1.0	j aa n n ee
jaantee 1.0	j aa n t ee
jaaqcataa 1.0	j aa q c a t aa
jaaqc 1.0	j aa q c
jaargan 1.0	j aa r g a n
jaataa 1.0	j aa t aa
jaatee 1.0	j aa t ee
jab 1.0	j a b
jagah 1.0	j a g a h
jaghoq 1.0	j a g h o q
jahaaq 1.0	j a h aa q
jaruurat 1.0	j a r uu r a t
jatxil 1.0	j a tx i l
jawaab 1.0	j a w aa b
jeedx 1.0	j ee dx
jee 1.0	j ee
jeisaa 1.0	j ei s aa
jeisee 1.0	j ei s ee
jiisiidxii 1.0	j ii s ii dx ii
jiiwan 1.0	j ii w a n
jinheeq 1.0	j i n h ee q
jinhoqnee 1.0	j i n h o q n ee
jinkii 1.0	j i n k ii
jisee 1.0	j i s ee
jis 1.0	j i s
jiskaa 1.0	j i s k aa
jodxqaa 1.0	j o dxq aa
jodxqeeq 1.0	j o dxq ee q
jodxqii 1.0	j o dxq ii
jodxq 1.0	j o dxq
jodxqtaa 1.0	j o dxq t aa
jodxqtee 1.0	j o dxq t ee
jo 1.0	j o
kaa 1.0	k aa
kaam 1.0	k aa m
kaarak 1.0	k aa r a k
kaaranx 1.0	k aa r a nx
kaarya 1.0	k aa r y a
kaauqtx 1.0	k aa u q tx
kabhii 1.0	k a bh ii
kadmoq 1.0	k a d m o q
kahaa 1.0	k a h aa
kaheegaa 1.0	k a h ee g aa
kaheeqgee 1.0	k a h ee q g ee
kahiiq 1.0	k a h ii q
kah 1.0	k a h
kahnaa 1.0	k a h n aa
kahtaa 1.0	k a h t aa
kahtee 1.0	k a h t ee
kaii 1.0	k a ii
kaleekshan 1.0	k a l ee k sh a n
kaleekshaqs 1.0	k a l ee k sh a q s
kalpanaa 1.0	k a l p a n aa
kam 1.0	k a m
kamobeesh 1.0	k a m o b ee sh
kampyuutxars 1.0	k a m p y uu tx a r s
kampyuutxeeshan 1.0	k a m p y uu tx ee sh a n
kampyuutxeeshnal 1.0	k a m p y uu tx ee sh n a l
kampyuutx 1.0	k a m p y uu tx
kamree 1.0	k a m r ee
kaqdxiishan 1.0	k a q dx ii sh a n
kaqdxiishnal 1.0	k a q dx ii sh n a l
kaqpyuutxar 1.0	k a q p y uu tx a r
kaqpyuutxeeshans 1.0	k a q p y uu tx ee sh a n s
kaqpyuutxiqg 1.0	k a q p y uu tx i q g
kaqpyuutx 1.0	k a q p y uu tx
kareegaa 1.0	k a r ee g aa
karee 1.0	k a r ee
kareeqgee 1.0	k a r ee q g ee
kareeq 1.0	k a r ee q
kar 1.0	k a r
karkee 1.0	k a r k ee
karnaa 1.0	k a r n aa
karnee 1.0	k a r n ee
karnii 1.0	k a r n ii
kartaa 1.0	k a r t aa
kartee 1.0	k a r t ee
kartii 1.0	k a r t ii
kaxlam 1.0	k ax l a m
kaxl 1.0	k ax l
kaxmaa 1.0	k ax m aa
kaxman 1.0	k ax m a n
kaxstx 1.0	k ax s tx
kee 1.0	k ee
keewal 1.0	k ee w a l
keisee 1.0	k ei s ee
khaalii 1.0	kh aa l ii
khaanaa 1.0	kh aa n aa
khaataa 1.0	kh aa t aa
kheel 1.0	kh ee l
khilaaph 1.0	kh i l aa ph
khojeeq 1.0	kh o j ee q
khojnaa 1.0	kh o j n aa
khojnee 1.0	kh o j n ee
kho 1.0	kh o
khqaasiyat 1.0	khq aa s i y a t
khud 1.0	kh u d
kiee 1.0	k i ee
kii 1.0	k ii
ki 1.0	k i
kisii 1.0	k i s ii
kitnaa 1.0	k i t n aa
kiyaa 1.0	k i y aa
kiyee 1.0	k i y ee
klojdx 1.0	k l o j dx
kodx 1.0	k o dx
koii 1.0	k o ii
ko 1.0	k o
kolan 1.0	k o l a n
kolons 1.0	k o l o n s
koshish 1.0	k o sh i sh
koun 1.0	k ou n
kram 1.0	k r a m
ksxamtaa 1.0	k sx a m t aa
kuch 1.0	k u ch
kursiyaamq 1.0	k u r s i y aa mq
kursiyoq 1.0	k u r s i y o q
kushal 1.0	k u sh a l
kwaaqtxitxii 1.0	k w aa q tx i tx ii
kyaa 1.0	k y aa
kyoqki 1.0	k y o q k i
kyoq 1.0	k y o q
laain 1.0	l aa i n
lagaa 1.0	l a g aa
lagbhag 1.0	l a g bh a g
lag 1.0	l a g
laksxya 1.0	l a k sx y a
laqbaa 1.0	l a q b aa
laxng 1.0	l ax n g
leekin 1.0	l ee k i n
lee 1.0	l ee
leenaa 1.0	l ee n aa
leenee 1.0	l ee n ee
leeq 1.0	l ee q
leetaa 1.0	l ee t aa
leiqgweej 1.0	l ei q g w ee j
liee 1.0	l i ee
likhaa 1.0	l i kh aa
likheeq 1.0	l i kh ee q
likhii 1.0	l i kh ii
likh 1.0	l i kh
likhnaa 1.0	l i kh n aa
likhnee 1.0	l i kh n ee
likhtee 1.0	l i kh t ee
limitx 1.0	l i m i tx
listx 1.0	l i s tx
listxs 1.0	l i s tx s
log 1.0	l o g
logoq 1.0	l o g o q
loutxaaeeq 1.0	l ou tx aa ee q
loutxaanaa 1.0	l ou tx aa n aa
maainas 1.0	m aa i n a s
maamlee 1.0	m aa m l ee
maarks 1.0	m aa r k s
mahatwapuurnx 1.0	m a h a t w a p uu r nx
mahsuus 1.0	m a h s uu s
manipyuleetx 1.0	m a n i p y u l ee tx
manmaanee 1.0	m a n m aa n ee
maqc 1.0	m a q c
mashiin 1.0	m a sh ii n
matlab 1.0	m a t l a b
meel 1.0	m ee l
meeq 1.0	m ee q
meeqtx 1.0	m ee q tx
meinipuleetx 1.0	m ei n i p u l ee tx
meiq 1.0	m ei q
mileegaa 1.0	m i l ee g aa
milnaa 1.0	m i l n aa
miltaa 1.0	m i l t aa
minimam 1.0	m i n i m a m
moujuudaa 1.0	m ou j uu d aa
mujhee 1.0	m u jh ee
mukhya 1.0	m u kh y a
mushkil 1.0	m u sh k i l
muul 1.0	m uu l
naain 1.0	n aa i n
naamak 1.0	n aa m a k
naa 1.0	n aa
naee 1.0	n a ee
nahiiq 1.0	n a h ii q
nambar 1.0	n a m b a r
na 1.0	n a
naqbar 1.0	n a q b a r
naqbaroq 1.0	n a q b a r o q
naqbars 1.0	n a q b a r s
nayaa 1.0	n a y aa
nazar 1.0	n a z a r
neem 1.0	n ee m
neems 1.0	n ee m s
nee 1.0	n ee
nikaalaa 1.0	n i k aa l aa
nikaal 1.0	n i k aa l
nirbhar 1.0	n i r bh a r
nirdeesh 1.0	n i r d ee sh
nirmaanx 1.0	n i r m aa nx
nishcit 1.0	n i sh c i t
nisxkarsx 1.0	n i sx k a r sx
nou 1.0	n ou
nyuumeerikal 1.0	n y uu m ee r i k a l
opan 1.0	o p a n
or 1.0	o r
oupcaarik 1.0	ou p c aa r i k
our 1.0	ou r
paaeeqgee 1.0	p aa ee q g ee
paaithan 1.0	p aa i th a n
paamqc 1.0	p aa mq c
paa 1.0	p aa
paaqc 1.0	p aa q c
paar 1.0	p aa r
paas 1.0	p aa s
paatee 1.0	p aa t ee
paatxhyakram 1.0	p aa txh y a k r a m
paawar 1.0	p aa w a r
paaythan 1.0	p aa y th a n
pacciis 1.0	p a c c ii s
padxhqaa 1.0	p a dxhq aa
padxhqnee 1.0	p a dxhq n ee
padxhq 1.0	p a dxhq
padxqtaa 1.0	p a dxq t aa
pahcaan 1.0	p a h c aa n
pahlaa 1.0	p a h l aa
pahlee 1.0	p a h l ee
pahlii 1.0	p a h l ii
pakaanee 1.0	p a k aa n ee
paqkcueeshan 1.0	p a q k c u ee sh a n
paqkti 1.0	p a q k t i
paqktiyoq 1.0	p a q k t i y o q
parantu 1.0	p a r a n t u
paribhaasxaa 1.0	p a r i bh aa sx aa
paribhaasxit 1.0	p a r i bh aa sx i t
paricit 1.0	p a r i c i t
pariiksxanx 1.0	p a r ii k sx a nx
par 1.0	p a r
parseeqtxeej 1.0	p a r s ee q tx ee j
parseeqtx 1.0	p a r s ee q tx
parwaah 1.0	p a r w aa h
paryaapt 1.0	p a r y aa p t
pataa 1.0	p a t aa
paxiqtx 1.0	p ax i q tx
paxiqtxs 1.0	p ax i q tx s
paxjitxiwa 1.0	p ax j i tx i w a
peeshkash 1.0	p ee sh k a sh
phaainaaitx 1.0	ph aa i n aa i tx
phaqkshan 1.0	ph a q k sh a n
phaqkshans 1.0	ph a q k sh a n s
pheeqk 1.0	ph ee q k
pheiktxar 1.0	ph ei k tx a r
pheiktxarsoq 1.0	ph ei k tx a r s o q
pheiktxars 1.0	ph ei k tx a r s
phir 1.0	ph i r
phon 1.0	ph o n
pichlee 1.0	p i ch l ee
pichlii 1.0	p i ch l ii
plas 1.0	p l a s
posishan 1.0	p o s i sh a n
posishans 1.0	p o s i sh a n s
praapt 1.0	p r aa p t
prakaar 1.0	p r a k aa r
prakriyaa 1.0	p r a k r i y aa
prastut 1.0	p r a s t u t
pratidin 1.0	p r a t i d i n
pratiit 1.0	p r a t ii t
pratipaadan 1.0	p r a t i p aa d a n
pratyeek 1.0	p r a t y ee k
prayaas 1.0	p r a y aa s
probleems 1.0	p r o b l ee m s
prograamiqg 1.0	p r o g r aa m i q g
prograam 1.0	p r o g r aa m
prograams 1.0	p r o g r aa m s
proseesar 1.0	p r o s ee s a r
punargatxhit 1.0	p u n a r g a txh i t
punarwyawasthit 1.0	p u n a r w y a w a s th i t
punaupyog 1.0	p u n a u p y o g
puraanaa 1.0	p u r aa n aa
puraanee 1.0	p u r aa n ee
puuchtee 1.0	p uu ch t ee
puuraa 1.0	p uu r aa
puurii 1.0	p uu r ii
raaitxmostx 1.0	r aa i tx m o s tx
rahaa 1.0	r a h aa
raheegaa 1.0	r a h ee g aa
rahee 1.0	r a h ee
rahnaa 1.0	r a h n aa
rakheeq 1.0	r a kh ee q
rakhnee 1.0	r a kh n ee
reekhaa 1.0	r ee kh aa
reeqj 1.0	r ee q j
reesipii 1.0	r ee s i p ii
rimaaiqdxar 1.0	r i m aa i q dx a r
rukeeqgee 1.0	r u k ee q g ee
rutx 1.0	r u tx
ruup 1.0	r uu p
saaitx 1.0	s aa i tx
saamaanya 1.0	s aa m aa n y a
saamuuhik 1.0	s aa m uu h i k
saaree 1.0	s aa r ee
saath 1.0	s aa th
saat 1.0	s aa t
saatxh 1.0	s aa txh
sabhii 1.0	s a bh ii
sabjeektxiwa 1.0	s a b j ee k tx i w a
sabsee 1.0	s a b s ee
sacmuc 1.0	s a c m u c
sahii 1.0	s a h ii
sajaawatx 1.0	s a j aa w a tx
sakeeq 1.0	s a k ee q
saksxam 1.0	s a k sx a m
saktaa 1.0	s a k t aa
saktee 1.0	s a k t ee
saktii 1.0	s a k t ii
sakuuq 1.0	s a k uu q
samaan 1.0	s a m aa n
samaapt 1.0	s a m aa p t
samaaroh 1.0	s a m aa r o h
samajhnee 1.0	s a m a jh n ee
samajh 1.0	s a m a jh
samjhaanee 1.0	s a m jh aa n ee
samuuh 1.0	s a m uu h
samya 1.0	s a m y a
saphaaii 1.0	s a ph aa ii
saqbaqdh 1.0	s a q b a q dh
saqbhaawit 1.0	s a q bh aa w i t
saqbhaawnaaeeq 1.0	s a q bh aa w n aa ee q
saqbhawa 1.0	s a q bh a w a
saqdarbh 1.0	s a q d a r bh
saqdeeshoq 1.0	s a q d ee sh o q
saqgrah 1.0	s a q g r a h
saqkeet 1.0	s a q k ee t
saqkhyaaoq 1.0	s a q kh y aa o q
saqkhyaa 1.0	s a q kh y aa
saqpatti 1.0	s a q p a t t i
saqshodhit 1.0	s a q sh o dh i t
saqtusxtx 1.0	s a q t u sx tx
saral 1.0	s a r a l
sawaal 1.0	s a w aa l
saxrtxeedx 1.0	s ax r tx ee dx
seel 1.0	s ee l
see 1.0	s ee
seetx 1.0	s ee tx
shaamil 1.0	sh aa m i l
shaayad 1.0	sh aa y a d
shabdoq 1.0	sh a b d o q
shabd 1.0	sh a b d
shahar 1.0	sh a h a r
shart 1.0	sh a r t
shaxrtxakatx 1.0	sh ax r tx a k a tx
sheesx 1.0	sh ee sx
shiitx 1.0	sh ii tx
shuruaat 1.0	sh u r u aa t
shuruu 1.0	sh u r uu
shuunya 1.0	sh uu n y a
siikheeqgee 1.0	s ii kh ee q g ee
siikhnee 1.0	s ii kh n ee
siikweeqs 1.0	s ii k w ee q s
sii 1.0	s ii
!SIL 1.0	sil
siqgal 1.0	s i q g a l
siqtxeeks 1.0	s i q tx ee k s
siqtxeiks 1.0	s i q tx ei k s
siqtxeiktxik 1.0	s i q tx ei k tx i k
sirph 1.0	s i r ph
siwaaya 1.0	s i w aa y a
skawaayar 1.0	s k a w aa y a r
skuul 1.0	s k uu l
slaaidx 1.0	s l aa i dx
soc 1.0	s o c
soctee 1.0	s o c t ee
soubhaagya 1.0	s ou bh aa g y a
spareedx 1.0	s p a r ee dx
spasxtx 1.0	s p a sx tx
staroq 1.0	s t a r o q
star 1.0	s t a r
sthaapit 1.0	s th aa p i t
stxaar 1.0	s tx aa r
stxarakcars 1.0	s tx a r a k c a r s
stxarakcar 1.0	s tx a r a k c a r
stxeeps 1.0	s tx ee p s
stxeep 1.0	s tx ee p
stxeetxmeeqtxs 1.0	s tx ee tx m ee q tx s
stxor 1.0	s tx o r
sudhaar 1.0	s u dh aa r
sudxoku 1.0	s u dx o k u
sujhaawa 1.0	s u jh aa w a
sunishcit 1.0	s u n i sh c i t
suuciibaddh 1.0	s uu c ii b a d dh
suuciyoq 1.0	s uu c i y o q
suucnaaoq 1.0	s uu c n aa o q
suwidhaaoq 1.0	s u w i dh aa o q
swaagat 1.0	s w aa g a t
taaki 1.0	t aa k i
tabhii 1.0	t a bh ii
tab 1.0	t a b
tak 1.0	t a k
tarah 1.0	t a r a h
tariikaa 1.0	t a r ii k aa
tariikee 1.0	t a r ii k ee
tariikoq 1.0	t a r ii k o q
tark 1.0	t a r k
tathya 1.0	t a th y a
teiyaar 1.0	t ei y aa r
thaa 1.0	th aa
thee 1.0	th ee
thodxqaa 1.0	th o dxq aa
thodxqee 1.0	th o dxq ee
tiin 1.0	t ii n
tirsatxh 1.0	t i r s a txh
to 1.0	t o
tour 1.0	t ou r
tulnaa 1.0	t u l n aa
txaaim 1.0	tx aa i m
txaaip 1.0	tx aa i p
txaask 1.0	tx aa s k
txhiik 1.0	txh ii k
txhos 1.0	txh o s
txiim 1.0	tx ii m
txreiktxeebal 1.0	tx r ei k tx ee b a l
txruu 1.0	tx r uu
txuu 1.0	tx uu
ucc 1.0	u c c
udaahranx 1.0	u d aa h r a nx
udxqaanoq 1.0	u dxq aa n o q
udxqaan 1.0	u dxq aa n
ummiid 1.0	u m m ii d
unheeq 1.0	u n h ee q
unkaa 1.0	u n k aa
unkee 1.0	u n k ee
unkii 1.0	u n k ii
un 1.0	u n
upyog 1.0	u p y o g
usasee 1.0	u s a s ee
usee 1.0	u s ee
usii 1.0	u s ii
us 1.0	u s
utpaadan 1.0	u t p aa d a n
utxhaaee 1.0	u txh aa ee
uupar 1.0	uu p a r
waaii 1.0	w aa ii
waalaa 1.0	w aa l aa
waalee 1.0	w aa l ee
waapas 1.0	w aa p a s
waastawa 1.0	w aa s t a w a
wahii 1.0	w a h ii
wah 1.0	w a h
wanth 1.0	w a n th
wan 1.0	w a n
waphaadaar 1.0	w a ph aa d aa r
wardx 1.0	w a r dx
warnxan 1.0	w a r nx a n
warnxit 1.0	w a r nx i t
wartamaan 1.0	w a r t a m aa n
wartanii 1.0	w a r t a n ii
wee 1.0	w ee
weilyuuj 1.0	w ei l y uu j
weilyuuoq 1.0	w ei l y uu o q
weilyuu 1.0	w ei l y uu
wibhinn 1.0	w i bh i n n
wicaar 1.0	w i c aa r
wisheesxajnjataa 1.0	w i sh ee sx a j nj a t aa
wisheesxtaaeeq 1.0	w i sh ee sx t aa ee q
wisheesx 1.0	w i sh ee sx
wishisxtx 1.0	w i sh i sx tx
wistaarit 1.0	w i s t aa r i t
wistaar 1.0	w i s t aa r
wistrqt 1.0	w i s t rq t
wiwranx 1.0	w i w r a nx
wyaakhyaan 1.0	w y aa kh y aa n
wyakti 1.0	w y a k t i
wyawasthaa 1.0	w y a w a s th aa
wyawasthit 1.0	w y a w a s th i t
yaad 1.0	y aa d
yaatraa 1.0	y aa t r aa
yaa 1.0	y aa
yadi 1.0	y a d i
yahaamq 1.0	y a h aa mq
yahaaq 1.0	y a h aa q
yahiiq 1.0	y a h ii q
yahii 1.0	y a h ii
yah 1.0	y a h
yee 1.0	y ee
yogya 1.0	y o g y a
yuuniphaarm 1.0	y uu n i ph aa r m
